UserName,UserReg
sunkara mohith bhargav,1234567
Sunkara Bhavana Humphy,7894561
Sunkara Venkata Ramana,5689123
Sunkara Padhma Latha,7895521
pinky,1235467
mohith bhargav ,4568888
sunkara venkata ramana,4567895